<?xml version="1.0" encoding="UTF-8"?>
<!DOCTYPE svg PUBLIC "-//W3C//DTD SVG 1.1//EN" "http://www.w3.org/Graphics/SVG/1.1/DTD/svg11.dtd">
<svg xmlns="http://www.w3.org/2000/svg" version="1.1" preserveAspectRatio="xMinYMin meet"
     style="shape-rendering:geometricPrecision; text-rendering:geometricPrecision; image-rendering:optimizeQuality; fill-rule:evenodd; clip-rule:evenodd"
     width="187" height="187" viewBox="0 0 750 750">
    <defs>
        <style type="text/css"><![CDATA[
            
            .icon {
                fill: #f0f0f0;
            }
        ]]></style>
    </defs>
    
    <g id="meeple-2" transform="translate(0,0)">
        <path class="icon" d="M45 0l660 0c25,0 45,20 45,45l0 660c0,25 -20,45 -45,45l-660 0c-25,0 -45,-20 -45,-45l0 -660c0,-25 20,-45 45,-45zm364 445c-4,0 -6,3 -6,5 -13,33 -25,66 -38,101 -4,12 -6,24 -23,27 -49,8 -99,16 -150,24 -59,6 -52,-52 -33,-117 18,-63 47,-132 40,-161 -7,-26 -129,32 -147,-43 -9,-37 17,-59 46,-79 25,-18 53,-31 83,-45 27,-12 38,-11 35,-26 -4,-21 -8,-28 -5,-46 5,-33 29,-50 66,-54 36,-4 69,7 92,36 14,16 15,23 24,44 6,14 16,11 47,16 34,6 67,11 98,21 36,12 71,26 84,61 28,69 -109,47 -99,72 10,28 75,81 127,132 52,51 90,99 38,110 -46,8 -93,15 -140,22 -17,3 -26,-7 -37,-17 -31,-27 -63,-54 -94,-80 -2,-2 -5,-4 -8,-3zm218 -181l-22 78c-20,-18 -42,-39 -54,-55 0,0 0,0 0,0 10,-2 20,-3 29,-5 16,-3 34,-8 47,-18zm84 273l-28 90c-3,7 -10,12 -23,15 -48,8 -104,16 -152,24 -17,3 -26,-9 -37,-19 -31,-27 -60,-54 -89,-80 1,-3 2,-6 3,-9 10,-28 20,-56 31,-84 27,23 54,46 82,69 16,15 29,27 53,23 47,-8 94,-15 140,-22l1 0 1 -1c6,-1 12,-3 18,-6zm-351 57c-9,24 -17,49 -26,74 -4,13 -6,26 -23,29 -49,7 -97,15 -146,23 -16,1 -28,-3 -37,-10l28 -93c11,6 25,7 38,5l1 0 0 0c50,-8 100,-16 150,-24 6,0 10,-2 15,-4zm-205 -165c-27,-4 -89,13 -118,-16l27 -83c17,10 40,13 62,12 14,-1 27,-3 40,-4 3,0 8,-1 13,-1 0,21 -15,64 -24,92z"/>
    </g>
</svg>
